posit-blogs - Creating ADaM Subject-Level Analysis Datasets (ADSL) with the Pharmaverse, Part 1
…
get_control_term(adsl_spec, SEXN)

# A tibble: 2 × 2
  code  decode
  <chr> <chr> 
1 1     F     
2 2     M     

Metatools makes it easy to code our variables without tedious if-else statements. The create_var_from_codelist() function helps us pull in the reference variables we need to get our desired output.

adsl_pred %>%  
  create_var_from_codelist(adsl_spec, SEX, SEXN) %>% 
  select(USUBJID, SEX, SEXN)

# A tibble: 200 × 3
   USUBJID        SEX    SEXN
   <chr>          <chr> <dbl>
 1 GSK123456-1101 F         1
 2 GSK123456-1104 M         2
 3 GSK123456-1105 F         1
 4 GSK123456-1106 F         1
 5 GSK123456-1107 F         1
 6 GSK123456-1108 M         2
 7 GSK123456-1109 M         2
 8 GSK123456-1111 F         1
 9 GSK123456-1112 F         1
10 GSK123456-1115 M         2
# ℹ 190 more rows
…
