posit-blogs - Using R in Production with Posit Connect: Deploying Models as APIs for Customer-Facing Applications
…
Now, let’s use the dbplyr package. The dbplyr package allows you to query databases with dplyr syntax, so you do not have to switch between R and SQL to explore the data. However, we’ll be working solely in R for this walkthrough. We can use the collect() function to download our data into a tibble.

golf_dat <-
  tbl(con, dbplyr::ident_q('"public"."golf_dat"')) |>
  collect()

golf_dat

# A tibble: 50 × 5
    iron material dimples diameter thickness
   <dbl> <chr>    <int64>  <int64>     <dbl>
 1  230. Liquid       422      156      0.03
 2  231. Tungsten     422      156      0.07
 3  229. Liquid       422      156      0.07
 4  230. Tungsten     422      156      0.03
 5  231. Tungsten     422      118      0.03
 6  229. Tungsten     422      156      0.07
 7  230. Liquid       422      156      0.07
 8  230. Tungsten     422      156      0.03
 9  230. Tungsten     422      156      0.07
10  230. Liquid       392      156      0.03
# ℹ 40 more rows
…
