posit-blogs - pins: Pin, Discover and Share Resources
…
You can install pins from CRAN with:

install.packages("pins")

You can pin remote files with pin(url). pin(url) downloads and caches the remote url, returning the path to the locally cached file. This gives you the ability to work offline (or continue working even if the remote resource disappears) with minimal changes to your existing code. When called again in the future, pin() will automatically check for changes, and only re-download the file if needed.

For instance, the following example makes use of a remote CSV file, which you can download and cache with pin() before it’s loaded with read_csv():

library(tidyverse)
library(pins)

url <- "https://raw.githubusercontent.com/facebook/prophet/master/examples/example_retail_sales.csv"
retail_sales <- read_csv(pin(url))

# A tibble: 293 x 2
   ds              y
   <date>      <dbl>
 1 1992-01-01 146376
 2 1992-02-01 147079
 3 1992-03-01 159336
 4 1992-04-01 163669
 5 1992-05-01 170068
 6 1992-06-01 168663
 7 1992-07-01 169890
 8 1992-08-01 170364
 9 1992-09-01 164617
10 1992-10-01 173655
# … with 283 more rows
…
Notice that all pins are referenced as <owner>/<name> and even if the <owner> is not provided, each board will assign an appropriate one. While you can ignore <owner> and reference pins by <name>, this can fail in some boards if different owners assign the same name to a pin.

You can then retrieve a pin as a local path through pin_get():

pin_get("hpiR/seattle_sales")

# A tibble: 43,313 x 16
   pinx  sale_id sale_price sale_date  use_type  area lot_sf  wfnt bldg_grade tot_sf
   <chr> <chr>        <int> <date>     <chr>    <int>  <int> <dbl>      <int>  <int>
 1 ..00… 2013..…     289000 2013-02-06 sfr         79   9295     0          7   2560
 2 ..00… 2013..…     356000 2013-07-11 sfr         18   6000     0          6   1540
 3 ..00… 2010..…     333500 2010-12-29 sfr         79   7200     0          8   2380
 4 ..00… 2016..…     577200 2016-03-17 sfr         79   7200     0          8   2380
 5 ..00… 2012..…     237000 2012-05-02 sfr         79   5662     0          7   1370
 6 ..00… 2014..…     347500 2014-03-11 sfr         79   5830     0          7    880
 7 ..00… 2012..…     429000 2012-09-20 sfr         18  12700     0          7   1640
 8 ..00… 2015..…     653295 2015-07-21 sfr         79   7000     0          7   1990
 9 ..00… 2014..…     427650 2014-02-19 townhou…    79   3072     0          7   1980
10 ..00… 2015..…     488737 2015-03-19 townhou…    79   3072     0          7   1980
# … with 43,303 more rows, and 6 more variables: beds <int>, baths <dbl>,
#   age <int>, eff_age <int>, longitude <dbl>, latitude <dbl>
…
