posit-blogs - pins 0.3.0: Azure, GCloud and S3
…
To make this even easier for others to consume, we can make this S3 bucket public; which means you can now connect to this board without even having to configure S3, making it possible to retrieve this dataset with just one line of R code!

pins::pin_get("worldbank/indicators", "https://rpins.s3.amazonaws.com")

# A tibble: 5,656,458 x 6
   CountryName CountryCode IndicatorName                          IndicatorCode    Year      Value
   <chr>       <chr>       <chr>                                  <chr>           <dbl>      <dbl>
 1 Arab World  ARB         Adolescent fertility rate (births per… SP.ADO.TFRT      1960    1.34e+2
 2 Arab World  ARB         Age dependency ratio (% of working-ag… SP.POP.DPND      1960    8.78e+1
 3 Arab World  ARB         Age dependency ratio, old (% of worki… SP.POP.DPND.OL   1960    6.63e+0
 4 Arab World  ARB         Age dependency ratio, young (% of wor… SP.POP.DPND.YG   1960    8.10e+1
 5 Arab World  ARB         Arms exports (SIPRI trend indicator v… MS.MIL.XPRT.KD   1960    3.00e+6
 6 Arab World  ARB         Arms imports (SIPRI trend indicator v… MS.MIL.MPRT.KD   1960    5.38e+8
 7 Arab World  ARB         Birth rate, crude (per 1,000 people)   SP.DYN.CBRT.IN   1960    4.77e+1
 8 Arab World  ARB         CO2 emissions (kt)                     EN.ATM.CO2E.KT   1960    5.96e+4
 9 Arab World  ARB         CO2 emissions (metric tons per capita) EN.ATM.CO2E.PC   1960    6.44e-1
10 Arab World  ARB         CO2 emissions from gaseous fuel consu… EN.ATM.CO2E.GF…  1960    5.04e+0
# … with 5,656,448 more rows
…
