posit-blogs - pins 0.4.0: Versioning
…
However, since GitHub was designed as a version control system and pins 0.4 adds support for pin_versions(), we can now explore particular versions of this dataset:

pin_versions("versioned", board = "github")

# A tibble: 2 x 4
  version created              author         message                     
  <chr>   <chr>                <chr>          <chr>                       
1 6e6c320 2020-04-02T21:28:07Z javierluraschi slight preference to mtcars 
2 01f8ddf 2020-04-02T21:27:59Z javierluraschi use iris as the main dataset

You can then retrieve the version you are interested in as follows:

pin_get("versioned", version = "01f8ddf", board = "github")

# A tibble: 150 x 5
   Sepal.Length Sepal.Width Petal.Length Petal.Width Species
          <dbl>       <dbl>        <dbl>       <dbl> <fct>  
 1          5.1         3.5          1.4         0.2 setosa 
 2          4.9         3            1.4         0.2 setosa 
 3          4.7         3.2          1.3         0.2 setosa 
 4          4.6         3.1          1.5         0.2 setosa 
 5          5           3.6          1.4         0.2 setosa 
 6          5.4         3.9          1.7         0.4 setosa 
 7          4.6         3.4          1.4         0.3 setosa 
 8          5           3.4          1.5         0.2 setosa 
 9          4.4         2.9          1.4         0.2 setosa 
10          4.9         3.1          1.5         0.1 setosa 
# … with 140 more rows
…
