Shiny and Arrow
…
  list.files(
    path = dir, 
    full.names = TRUE, 
    pattern = ".txt$"
  ), 
  delim = "\t"
) |> 
  dplyr::filter(Variable_H > 50) |> 
  dplyr::group_by(Item_Code) |> 
  dplyr::summarise(
    Variable_A_Total = sum(Variable_A)
  )
```

# A tibble: 1,000 × 2
   Item_Code Variable_A_Total
   <chr>                <dbl>
 1 A1G740              49453.
 2 A1J731              49481.
 3 A1N838              51610.
 4 A1O339              52633.
 5 A1R990              47588.
 6 A2E381              50823.
 7 A2J681              51575.
 8 A2N118              49840.
 9 A2U328              51106.
10 A2W136              48013.
# … with 990 more rows
…
    path = dir, 
    full.names = TRUE, 
    pattern = ".parquet$"
  ), 
  format = "parquet"
) |> 
  dplyr::filter(Variable_H > 50) |>
  dplyr::group_by(Item_Code) |>
  dplyr::summarise(
    Variable_A_Total = sum(Variable_A)
  ) |> 
  dplyr::collect()
```

# A tibble: 1,000 × 2
   Item_Code Variable_A_Total
   <chr>                <dbl>
 1 Z8B631              49545.
 2 J8O195              52941.
 3 I5Y383              46572.
 4 O8N416              51525.
 5 I2E912              49862.
 6 D4M22               50317.
 7 L1G322              46862.
 8 C3C179              51791.
 9 N4Q977              49013.
10 L6T273              48561.
# … with 990 more rows
…
